{
  "columnsTable": [
    {
      "title": "Motivo",
      "dataIndex": "motivo",
      "key": "motivo",
      "width": "90%"
    },
    {
      "title": "Ativo",
      "dataIndex": "ativo",
      "key": "ativo",
      "align": "left",
      "width": "8%"
    },
    {
      "title": "",
      "dataIndex": "icon",
      "key": "icon",
      "width": "1%",
      "className": "icon-motivo"
    },
    {
      "title": "",
      "dataIndex": "trash",
      "key": "trash",
      "width": "1%",
      "className": "icon-motivo"
    }
  ]
}
