{
  "dataTable": [
    {
      "key": "1",
      "name": [{
        "title":"Kit inverno Cadence aquecedor lareira e cafeteira 220 V",
        "endereco": "Rua guaruja",
        "numero": "400",
        "codigo": "000002",
        "bairro": "São José",
        "cidade": "Canoas",
        "estado": "RS",
        "visitas": 10,
        "visualizacoes": 300,
        "propostas": 4,
        "preco_venda": 159000,
        "preco_locacao": 0,
        "venda": true,
        "aluguel": true,
        "excluido": false,
        "tipo": "Apartamento",
        "propietario": [{
          "nome": "Diego",
          "email": "diegosud2008@gmail.com"
        }]
      }],
      "imagem": "https://s2.glbimg.com/A9UbOT66bw7kqdr367utaTiPsGk=/620x413/smart/e.glbimg.com/og/ed/f/original/2020/12/21/5-coisas-que-vao-te-fazer-sonhar-com-esta-casa-de-praia-contemporanea-7.jpg",
      "mkp": "Cadence",
      "estoque": "42",
      "id": "000002",
      "status": true,
      "action": [
        {
          "icon": "EyeOutlined",
          "to": "produtos/detalhes",
          "link": "true",
          "className": "icons d-flex"
        }
      ]
    },
    {
      "key": "2",
      "name": [{
        "title":"Kit inverno Cadence aquecedor lareira e cafeteira 220 V",
        "codigo": "000001",
        "endereco": "Rua guaruja",
        "numero": "400",
        "bairro": "São José",
        "cidade": "Canoas",
        "estado": "RS",
        "visitas": 10,
        "visualizacoes": 300,
        "propostas": 4,
        "preco_venda": 159000,
        "preco_locacao": 750,
        "venda": true,
        "aluguel": false,
        "excluido": false,
        "tipo": "Apartamento",
        "propietario": [{
          "nome": "Diego",
          "E-mail": "diegosud2008@gmail.com"
        }]
      }],
      "mkp": "Cadence",
      "imagem": "https://s2.glbimg.com/A9UbOT66bw7kqdr367utaTiPsGk=/620x413/smart/e.glbimg.com/og/ed/f/original/2020/12/21/5-coisas-que-vao-te-fazer-sonhar-com-esta-casa-de-praia-contemporanea-7.jpg",
      "estoque": "37",
      "id": "000001",
      "status": true,
      "action": [
        {
          "icon": "EyeOutlined",
          "to": "produtos/detalhes",
          "link": "true",
          "className": "icons d-flex"
        }
      ]
    }
  ]
}
