{
  "produtos": true,
  "id_pedido": "Aquecedor doméstico halógeno AH-01 127 V premium",
  "tipo": "Apartamento",
  "title": "Aquecedor doméstico halógeno AH-01 127 V premium",
  "image": "https://images-americanas.b2w.io/produtos/01/00/img/122378/2/122378271_1SZ.jpg",
  "classTitle": "classTitle",
  "dados": [
    {
      "collapseTitle": "Imóvel",
      "clientJson": [
        {
          "label": "Código",
          "value": "7235",
          "classValue": "spamBold",
          "classLabel": ""
        },
        {
          "label": "Estoque",
          "value": "17",
          "classValue": "spamBold",
          "classLabel": ""
        },
        {
          "label": "Status",
          "value": "Produto sem descrição",
          "classValue": "spamCancelado",
          "classLabel": ""
        },
        {
          "label": "Categoria",
          "value": "Aquecedores Elétricos",
          "classValue": "spamBold",
          "classLabel": ""
        },
        {
          "label": "Aprovação",
          "value": "04/07/2021",
          "classValue": "spamBold",
          "classLabel": ""
        },
        {
          "label": "Parceiro",
          "value": "Feliccità Móveis",
          "classValue": "spamBold",
          "classLabel": ""
        }
      ]
    },
    {
      "collapseTitle": "Preço",
      "clientJson": [
        {
          "label": "Valor",
          "value": "R$ 239,90",
          "classValue": "spamBold",
          "classLabel": ""
        }
      ]
    }
  ]
}
