{
  "infosArray": [
    {
      "colSpan1": "11",
      "colSpan2": "11",
      "colClass1": "infoColPed1",
      "colClass2": "infoColPed2",
      "collapseTiltle": "Informações gerais",
      "camposConfig1": [
        {
          "type": "input",
          "label": "Total (R$)",
          "width": "25%",
          "value": "594,80",
          "className": "input-style number-align",
          "classNameDiv": "w-100",
          "desable": true
        },
        {
          "type": "input",
          "label": "Forma de envio",
          "width": "50%",
          "marginR": "5px",
          "marginL": "5px",
          "value": "Frete Info Ar",
          "classNameDiv": "w-100",
          "className": "input-style",
          "desable": true
        },
        {
          "type": "input",
          "label": "Custo de frete (R$)",
          "className": "input-style number-align",
          "classNameDiv": "w-100",
          "value": "0,00",
          "width": "25%",
          "desable": true
        },
        {
          "type": "input",
          "label": "Data do pedido",
          "className": "input-style",
          "classNameDiv": "w-100",
          "value": "01/07/2012 às 09:40",
          "width": "40%",
          "marginR": "5px",
          "desable": true
        },
        {
          "type": "input",
          "label": "Entrega esperada",
          "className": "input-style",
          "marginL": "5px",
          "classNameDiv": "w-100",
          "value": "16/07/2012",
          "width": "36%",
          "desable": true
        }
      ],
      "camposConfig2": [
        {
          "type": "input",
          "label": "Bandeira",
          "width": "50%",
          "value": "Magalu",
          "classNameDiv": "w-100",
          "className": "input-style",
          "marginR": "5px",
          "desable": true
        },
        {
          "type": "input",
          "label": "Id no marketplace",
          "width": "50%",
          "marginL": "5px",
          "value": "Magalu-32061830",
          "classNameDiv": "w-100",
          "className": "input-style",
          "desable": true
        },
        {
          "type": "input",
          "label": "Status no marketplace",
          "width": "50%",
          "marginR": "5px",
          "value": "Cancelado",
          "classNameDiv": "w-100",
          "className": "input-style",
          "desable": true
        }
      ]
    },
    {
      "colSpan1": "12",
      "colSpan2": "10",
      "colClass1": "infoColPed1",
      "colClass2": "infoColPed2",
      "collapseTiltle": "Cliente",
      "camposConfig1": [
        {
          "type": "input",
          "label": "Nome do cliente",
          "width": "100%",
          "value": "Fernanda Monteiro Borges da Silva Medeiros",
          "className": "input-style",
          "classNameDiv": "w-100",
          "desable": true
        },

        {
          "type": "input",
          "label": "CPF",
          "width": "40%",
          "marginR": "5px",
          "value": "378.012.791-07",
          "classNameDiv": "w-100",
          "className": "input-style",
          "desable": true
        },
        {
          "type": "input",
          "label": "E-mail",
          "className": "input-style",
          "marginL": "5px",
          "classNameDiv": "w-100",
          "value": "fernandambsm@gmail.com",
          "width": "60%",
          "desable": true
        },
        {
          "type": "input",
          "label": "Telefone fixo",
          "className": "input-style",
          "classNameDiv": "w-100",
          "value": "(41) 3068-6292",
          "width": "30%",
          "marginR": "5px",
          "desable": true
        },
        {
          "type": "input",
          "label": "Celular",
          "className": "input-style",
          "classNameDiv": "w-100",
          "value": "(41) 99737-8317",
          "marginL": "5px",
          "width": "30%",
          "desable": true
        }
      ],
      "camposConfig2": [
        {
          "type": "input",
          "label": "Endereço de cobrança",
          "width": "100%",
          "value": "Rua Marquês do Herval, 876, ap. 1029 / Bloco C • Bairro Medianeira • 90140-190 / Santo Antônio da Patrulha / RS",
          "classNameDiv": "w-100",
          "className": "input-style",
          "desable": true
        },
        {
          "type": "input",
          "label": "Endereço de entrega",
          "width": "100%",
          "value": "Rua Marquês do Herval, 876, ap. 1029 / Bloco C • Bairro Medianeira • 90140-190 / Santo Antônio da Patrulha / RS",
          "classNameDiv": "w-100",
          "className": "input-style",
          "desable": true
        }
      ]
    },
    {
      "colSpan1": "24",
      "colSpan2": "",
      "colClass1": "infoColPed1",
      "colClass2": "infoColPed2",
      "collapseTiltle": "Pagamento",
      "camposConfig1": [
        {
          "type": "input",
          "label": "Forma",
          "width": "15%",
          "value": "Boleto",
          "marginR": "5px",
          "className": "input-style",
          "classNameDiv": "w-100",
          "desable": true
        },
        {
          "type": "input",
          "label": "Data",
          "className": "input-style",
          "marginL": "5px",
          "marginR": "5px",
          "classNameDiv": "w-100",
          "value": "01/07/2012 às 09:41",
          "width": "25%",
          "desable": true
        },
        {
          "type": "input",
          "label": "Parcelas",
          "className": "input-style number-align",
          "classNameDiv": "w-100",
          "value": "1",
          "width": "10%",
          "marginL": "5px",
          "desable": true
        }
      ]
    }
  ]
}
