{
  "treeDataInfo": [
    {
      "title": "Alimentos e bebidas",
      "key": "0-0",
      "children": [
        {
          "title": "Alimentos",
          "key": "0-0-0",
          "disabled": false,
          "children": [
            {
              "title": "Matinais",
              "key": "0-0-0-0",
              "disabled": false,
              "children": [
                {
                  "title": "Achocolotado",
                  "marketplaces":["magaluLogo","balcaoLogo"],
                  "key": "0-0-0-0-0"
                }
              ]
            }
          ]
        }
      ]
    },
    {
      "title": "Eletroportáteis",
      "key": "0-1",
      "children": [
        {
          "title": "Aspiradores",
          "key": "0-1-0",
          "children": [
            {
              "title": "Teste1",
              "key": "0-1-0-0",
              "marketplaces":["magaluLogo"]
            },
            {
              "title": "Teste2",
              "key": "0-1-0-1",
              "marketplaces":["balcaoLogo"]
            }
          ]
        },
        {
          "title": "Batedeiras",
          "key": "0-1-1",
          "marketplaces":["balcaoLogo"]
        },
        {
          "title": "Cafeteiras",
          "key": "0-1-2",
          "marketplaces":["magaluLogo"]
        },
        {
          "title": "Chaleiras elétricas",
          "key": "0-1-3",
          "marketplaces":["magaluLogo","balcaoLogo"]
        },
        {
          "title": "Chopeiras",
          "key": "0-1-4",
          "marketplaces":["magaluLogo","balcaoLogo"]
        }
      ]
    }
  ]
}
