{
  "dataTable": [
    {
      "key": "1",
      "pedido_id": "6557000265",
      "type": "button",
      "valueButton": "ATIVAR",
      "statusBtn": "disabled",
      "setConfig": "true",
      "valueConfig": "CONFIGURAÇÕES", 
      "label": "Integre-se ao maior maketplace do Brasil",
      "icon": "magaluLogo"
    },
    {
      "key": "2",
      "pedido_id": "122111141-A",
      "type": "button",
      "valueButton": "ATIVAR",
      "statusBtn": "disabled",
      "setConfig": "true",
      "valueConfig": "CONFIGURAÇÕES",
      "label": "O melhor local para sua conectividade",
      "icon": "vivoLogo"
    },
    {
      "key": "3",
      "pedido_id": "122111141-A",
      "type": "button",
      "valueButton": "ATIVAR",
      "statusBtn": "disabled",
      "setConfig": "true",
      "valueConfig": "CONFIGURAÇÕES",
      "label": "Marketplace com dinamica e segurança",
      "icon": "balcaoLogo"
    },
    {
      "key": "4",
      "pedido_id": "122111141-A",
      "type": "button",
      "valueButton": "ATIVAR",
      "statusBtn": "disabled",
      "setConfig": "true",
      "valueConfig": "CONFIGURAÇÕES",
      "label": "Integre-se ao maior maketplace do Brasil",
      "icon": "magaluLogo"
    },
    {
      "key": "5",
      "pedido_id": "122111141-A",
      "type": "button",
      "valueButton": "ATIVAR",
      "statusBtn": "disabled",
      "setConfig": "true",
      "valueConfig": "CONFIGURAÇÕES",
      "label": "Marketplace com dinamica e segurança",
      "icon": "balcaoLogo"
    }
  ]
}