{
  "infosArray": [
    {
      "colSpan1": "11",
      "colSpan2": "11",
      "colClass1": "infoCol1",
      "colClass2": "infoCol2",
      "collapseTiltle": "Autenticação",
      "camposConfig1": [
        {
          "type": "switch",
          "width": "100%",
          "value1": "ATIVO",
          "value2": "INATIVO",
          "className": "switch",
          "desable": false
        },
        {
          "type": "input",
          "label": "Usuário",
          "icon": "infoOutline",
          "width": "100%",
          "className": "w-100",
          "classNameDiv": "w-100",
          "desable": false
        },
        {
          "type": "input",
          "mode": "",
          "desable": false,
          "width": "100%",
          "label": "API Key",
          "className": "w-100",
          "classNameDiv": "w-100",
          "allowClear": true,
          "options": [
            {
              "value": "teste",
              "text": "teste"
            },
            {
              "value": "disabled",
              "text": "disabled"
            }
          ]
        },
        {
          "type": "input",
          "label": "Nome da conta",
          "width": "50%",
          "value": "Magazine Luiza",
          "className": "w-100",
          "classNameDiv": "w-100",
          "desable": true
        },
        {
          "type": "switch",
          "width": "50%",
          "value1": "PADRÃO",
          "value2": "PADRÃO",
          "value": "Magazine Luiza",
          "className": "switch2",
          "desable": true
        },
        {
          "type": "button",
          "value": "SALVAR",
          "buttonStyle": "primary",
          "className": "btn-preco",
          "desable": true
        },
        {
          "type": "button",
          "value": "CANCELAR",
          "buttonStyle": "secundary",
          "className": "btn-preco",
          "desable": true
        }
      ]
    }
  ]
}
